[{"city":"Baltimore","buildingtype":"FullServiceRestaurant","day":1,"total_heating_energy":38.594506028091665},
    {"city":"Baltimore","buildingtype":"FullServiceRestaurant","day":2,"total_heating_energy":39.948997050979166},
    {"city":"Baltimore","buildingtype":"FullServiceRestaurant","day":3,"total_heating_energy":33.16462003221667},
    {"city":"Baltimore","buildingtype":"FullServiceRestaurant","day":4,"total_heating_energy":46.644665200416675},
    {"city":"Baltimore","buildingtype":"FullServiceRestaurant","day":5,"total_heating_energy":45.663320368825},
    {"city":"Baltimore","buildingtype":"FullServiceRestaurant","day":6,"total_heating_energy":26.412353625222494},
    {"city":"Baltimore","buildingtype":"FullServiceRestaurant","day":7,"total_heating_energy":12.851596930265508},
    {"city":"Baltimore","buildingtype":"FullServiceRestaurant","day":8,"total_heating_energy":41.42526442131666},
    {"city":"Baltimore","buildingtype":"FullServiceRestaurant","day":9,"total_heating_energy":56.03242911226666},
    {"city":"Baltimore","buildingtype":"FullServiceRestaurant","day":10,"total_heating_energy":61.34382114080416},
    {"city":"Baltimore","buildingtype":"FullServiceRestaurant","day":11,"total_heating_energy":53.589550336145834},
    {"city":"Baltimore","buildingtype":"FullServiceRestaurant","day":12,"total_heating_energy":52.90895851592083},
    {"city":"Baltimore","buildingtype":"FullServiceRestaurant","day":13,"total_heating_energy":51.63619545484166},
    {"city":"Baltimore","buildingtype":"FullServiceRestaurant","day":14,"total_heating_energy":50.1898982018125},
    {"city":"Baltimore","buildingtype":"FullServiceRestaurant","day":15,"total_heating_energy":63.359095411245825},
    {"city":"Baltimore","buildingtype":"FullServiceRestaurant","day":16,"total_heating_energy":57.56554578133751},
    {"city":"Baltimore","buildingtype":"FullServiceRestaurant","day":17,"total_heating_energy":95.02145305966667},
    {"city":"Baltimore","buildingtype":"FullServiceRestaurant","day":18,"total_heating_energy":110.12757879858333},
    {"city":"Baltimore","buildingtype":"FullServiceRestaurant","day":19,"total_heating_energy":106.35359850708335},
    {"city":"Baltimore","buildingtype":"FullServiceRestaurant","day":20,"total_heating_energy":77.84098007287083},
    {"city":"Baltimore","buildingtype":"FullServiceRestaurant","day":21,"total_heating_energy":54.791729011537505},
    {"city":"Baltimore","buildingtype":"FullServiceRestaurant","day":22,"total_heating_energy":54.16275996660417},
    {"city":"Baltimore","buildingtype":"FullServiceRestaurant","day":23,"total_heating_energy":69.49489003892916},
    {"city":"Baltimore","buildingtype":"FullServiceRestaurant","day":24,"total_heating_energy":62.518948088816664},
    {"city":"Baltimore","buildingtype":"FullServiceRestaurant","day":25,"total_heating_energy":50.638138616687506},
    {"city":"Baltimore","buildingtype":"FullServiceRestaurant","day":26,"total_heating_energy":45.452278581799995},
    {"city":"Baltimore","buildingtype":"FullServiceRestaurant","day":27,"total_heating_energy":54.579470101616664},
    {"city":"Baltimore","buildingtype":"FullServiceRestaurant","day":28,"total_heating_energy":63.23545463985},
    {"city":"Baltimore","buildingtype":"FullServiceRestaurant","day":29,"total_heating_energy":81.21268698684166},
    {"city":"Baltimore","buildingtype":"FullServiceRestaurant","day":30,"total_heating_energy":59.46035249996668},
    {"city":"Baltimore","buildingtype":"FullServiceRestaurant","day":31,"total_heating_energy":46.75389860949167},
    {"city":"Baltimore","buildingtype":"Hospital","day":1,"total_heating_energy":510.54099450820837},
    {"city":"Baltimore","buildingtype":"Hospital","day":2,"total_heating_energy":520.5004936232084},
    {"city":"Baltimore","buildingtype":"Hospital","day":3,"total_heating_energy":493.9195259941667},
    {"city":"Baltimore","buildingtype":"Hospital","day":4,"total_heating_energy":549.9964402434583},
    {"city":"Baltimore","buildingtype":"Hospital","day":5,"total_heating_energy":522.0384351404166},
    {"city":"Baltimore","buildingtype":"Hospital","day":6,"total_heating_energy":477.8739075419167},
    {"city":"Baltimore","buildingtype":"Hospital","day":7,"total_heating_energy":438.6844027730833},
    {"city":"Baltimore","buildingtype":"Hospital","day":8,"total_heating_energy":454.1610972182917},
    {"city":"Baltimore","buildingtype":"Hospital","day":9,"total_heating_energy":522.9036108989168},
    {"city":"Baltimore","buildingtype":"Hospital","day":10,"total_heating_energy":547.5584237801249},
    {"city":"Baltimore","buildingtype":"Hospital","day":11,"total_heating_energy":581.613651080125},
    {"city":"Baltimore","buildingtype":"Hospital","day":12,"total_heating_energy":536.7063468514167},
    {"city":"Baltimore","buildingtype":"Hospital","day":13,"total_heating_energy":518.8030783748749},
    {"city":"Baltimore","buildingtype":"Hospital","day":14,"total_heating_energy":507.447499186},
    {"city":"Baltimore","buildingtype":"Hospital","day":15,"total_heating_energy":543.6461654765},
    {"city":"Baltimore","buildingtype":"Hospital","day":16,"total_heating_energy":562.6909453422082},
    {"city":"Baltimore","buildingtype":"Hospital","day":17,"total_heating_energy":832.7276244129167},
    {"city":"Baltimore","buildingtype":"Hospital","day":18,"total_heating_energy":999.5483873698751},
    {"city":"Baltimore","buildingtype":"Hospital","day":19,"total_heating_energy":898.9138316900834},
    {"city":"Baltimore","buildingtype":"Hospital","day":20,"total_heating_energy":690.8083348827917},
    {"city":"Baltimore","buildingtype":"Hospital","day":21,"total_heating_energy":545.2787542963334},
    {"city":"Baltimore","buildingtype":"Hospital","day":22,"total_heating_energy":530.9467625117499},
    {"city":"Baltimore","buildingtype":"Hospital","day":23,"total_heating_energy":600.6403662260001},
    {"city":"Baltimore","buildingtype":"Hospital","day":24,"total_heating_energy":569.9289992442499},
    {"city":"Baltimore","buildingtype":"Hospital","day":25,"total_heating_energy":561.785378770875},
    {"city":"Baltimore","buildingtype":"Hospital","day":26,"total_heating_energy":569.9168194097083},
    {"city":"Baltimore","buildingtype":"Hospital","day":27,"total_heating_energy":526.9299330147084},
    {"city":"Baltimore","buildingtype":"Hospital","day":28,"total_heating_energy":551.2099557443752},
    {"city":"Baltimore","buildingtype":"Hospital","day":29,"total_heating_energy":674.1717982518334},
    {"city":"Baltimore","buildingtype":"Hospital","day":30,"total_heating_energy":603.7502025965417},
    {"city":"Baltimore","buildingtype":"Hospital","day":31,"total_heating_energy":535.9586563354584},
    {"city":"Baltimore","buildingtype":"LargeHotel","day":1,"total_heating_energy":133.0808546355792},
    {"city":"Baltimore","buildingtype":"LargeHotel","day":2,"total_heating_energy":129.3446380544792},
    {"city":"Baltimore","buildingtype":"LargeHotel","day":3,"total_heating_energy":93.06639218189167},
    {"city":"Baltimore","buildingtype":"LargeHotel","day":4,"total_heating_energy":153.01888082864167},
    {"city":"Baltimore","buildingtype":"LargeHotel","day":5,"total_heating_energy":142.478202466475},
    {"city":"Baltimore","buildingtype":"LargeHotel","day":6,"total_heating_energy":62.7545260587375},
    {"city":"Baltimore","buildingtype":"LargeHotel","day":7,"total_heating_energy":37.229496260714996},
    {"city":"Baltimore","buildingtype":"LargeHotel","day":8,"total_heating_energy":127.1879924202708},
    {"city":"Baltimore","buildingtype":"LargeHotel","day":9,"total_heating_energy":170.53126399195415},
    {"city":"Baltimore","buildingtype":"LargeHotel","day":10,"total_heating_energy":183.87508079767085},
    {"city":"Baltimore","buildingtype":"LargeHotel","day":11,"total_heating_energy":170.20664146632086},
    {"city":"Baltimore","buildingtype":"LargeHotel","day":12,"total_heating_energy":163.86701065218338},
    {"city":"Baltimore","buildingtype":"LargeHotel","day":13,"total_heating_energy":160.20493469560418},
    {"city":"Baltimore","buildingtype":"LargeHotel","day":14,"total_heating_energy":158.47199108304582},
    {"city":"Baltimore","buildingtype":"LargeHotel","day":15,"total_heating_energy":198.65998904178332},
    {"city":"Baltimore","buildingtype":"LargeHotel","day":16,"total_heating_energy":189.84244592672917},
    {"city":"Baltimore","buildingtype":"LargeHotel","day":17,"total_heating_energy":309.19267374665},
    {"city":"Baltimore","buildingtype":"LargeHotel","day":18,"total_heating_energy":360.594637411325},
    {"city":"Baltimore","buildingtype":"LargeHotel","day":19,"total_heating_energy":347.74172739042916},
    {"city":"Baltimore","buildingtype":"LargeHotel","day":20,"total_heating_energy":250.76053745556666},
    {"city":"Baltimore","buildingtype":"LargeHotel","day":21,"total_heating_energy":187.8488478150125},
    {"city":"Baltimore","buildingtype":"LargeHotel","day":22,"total_heating_energy":184.49220134096666},
    {"city":"Baltimore","buildingtype":"LargeHotel","day":23,"total_heating_energy":221.0746243872292},
    {"city":"Baltimore","buildingtype":"LargeHotel","day":24,"total_heating_energy":193.12699090251252},
    {"city":"Baltimore","buildingtype":"LargeHotel","day":25,"total_heating_energy":156.7524679301625},
    {"city":"Baltimore","buildingtype":"LargeHotel","day":26,"total_heating_energy":143.04234041092084},
    {"city":"Baltimore","buildingtype":"LargeHotel","day":27,"total_heating_energy":169.1090598539208},
    {"city":"Baltimore","buildingtype":"LargeHotel","day":28,"total_heating_energy":203.70447622185418},
    {"city":"Baltimore","buildingtype":"LargeHotel","day":29,"total_heating_energy":253.6656548886875},
    {"city":"Baltimore","buildingtype":"LargeHotel","day":30,"total_heating_energy":187.23283303338334},
    {"city":"Baltimore","buildingtype":"LargeHotel","day":31,"total_heating_energy":153.583851439425},
    {"city":"Baltimore","buildingtype":"LargeOffice","day":1,"total_heating_energy":183.57007116220834},
    {"city":"Baltimore","buildingtype":"LargeOffice","day":2,"total_heating_energy":229.14525023147917},
    {"city":"Baltimore","buildingtype":"LargeOffice","day":3,"total_heating_energy":5.740383653221666},
    {"city":"Baltimore","buildingtype":"LargeOffice","day":4,"total_heating_energy":309.04213446752505},
    {"city":"Baltimore","buildingtype":"LargeOffice","day":5,"total_heating_energy":222.74985912828254},
    {"city":"Baltimore","buildingtype":"LargeOffice","day":6,"total_heating_energy":128.69091867802084},
    {"city":"Baltimore","buildingtype":"LargeOffice","day":7,"total_heating_energy":76.88791062367083},
    {"city":"Baltimore","buildingtype":"LargeOffice","day":8,"total_heating_energy":155.514400553875},
    {"city":"Baltimore","buildingtype":"LargeOffice","day":9,"total_heating_energy":279.9801113672341},
    {"city":"Baltimore","buildingtype":"LargeOffice","day":10,"total_heating_energy":23.890724547109162},
    {"city":"Baltimore","buildingtype":"LargeOffice","day":11,"total_heating_energy":357.84106059699167},
    {"city":"Baltimore","buildingtype":"LargeOffice","day":12,"total_heating_energy":288.7612807642858},
    {"city":"Baltimore","buildingtype":"LargeOffice","day":13,"total_heating_energy":222.3396591365954},
    {"city":"Baltimore","buildingtype":"LargeOffice","day":14,"total_heating_energy":223.76949908267375},
    {"city":"Baltimore","buildingtype":"LargeOffice","day":15,"total_heating_energy":392.87969509465364},
    {"city":"Baltimore","buildingtype":"LargeOffice","day":16,"total_heating_energy":332.46909339236043},
    {"city":"Baltimore","buildingtype":"LargeOffice","day":17,"total_heating_energy":235.0502278966375},
    {"city":"Baltimore","buildingtype":"LargeOffice","day":18,"total_heating_energy":1260.8672801130629},
    {"city":"Baltimore","buildingtype":"LargeOffice","day":19,"total_heating_energy":994.0919565934746},
    {"city":"Baltimore","buildingtype":"LargeOffice","day":20,"total_heating_energy":598.7440452561417},
    {"city":"Baltimore","buildingtype":"LargeOffice","day":21,"total_heating_energy":365.09135859355},
    {"city":"Baltimore","buildingtype":"LargeOffice","day":22,"total_heating_energy":343.9124562554434},
    {"city":"Baltimore","buildingtype":"LargeOffice","day":23,"total_heating_energy":459.010004501072},
    {"city":"Baltimore","buildingtype":"LargeOffice","day":24,"total_heating_energy":47.411974289441666},
    {"city":"Baltimore","buildingtype":"LargeOffice","day":25,"total_heating_energy":88.12290181861249},
    {"city":"Baltimore","buildingtype":"LargeOffice","day":26,"total_heating_energy":464.95580108579173},
    {"city":"Baltimore","buildingtype":"LargeOffice","day":27,"total_heating_energy":352.15313286268423},
    {"city":"Baltimore","buildingtype":"LargeOffice","day":28,"total_heating_energy":467.5433234209783},
    {"city":"Baltimore","buildingtype":"LargeOffice","day":29,"total_heating_energy":559.3197898136004},
    {"city":"Baltimore","buildingtype":"LargeOffice","day":30,"total_heating_energy":325.3510565431721},
    {"city":"Baltimore","buildingtype":"LargeOffice","day":31,"total_heating_energy":22.729879751604997},
    {"city":"Baltimore","buildingtype":"MediumOffice","day":1,"total_heating_energy":1.020362040406529},
    {"city":"Baltimore","buildingtype":"MediumOffice","day":2,"total_heating_energy":2.862848216846667},
    {"city":"Baltimore","buildingtype":"MediumOffice","day":3,"total_heating_energy":0},
    {"city":"Baltimore","buildingtype":"MediumOffice","day":4,"total_heating_energy":8.143628398097917},
    {"city":"Baltimore","buildingtype":"MediumOffice","day":5,"total_heating_energy":4.386783357378566},
    {"city":"Baltimore","buildingtype":"MediumOffice","day":6,"total_heating_energy":0.7621209850375},
    {"city":"Baltimore","buildingtype":"MediumOffice","day":7,"total_heating_energy":0},
    {"city":"Baltimore","buildingtype":"MediumOffice","day":8,"total_heating_energy":3.602974211553583},
    {"city":"Baltimore","buildingtype":"MediumOffice","day":9,"total_heating_energy":11.23534799669504},
    {"city":"Baltimore","buildingtype":"MediumOffice","day":10,"total_heating_energy":0.35488687656615836},
    {"city":"Baltimore","buildingtype":"MediumOffice","day":11,"total_heating_energy":12.770351566690621},
    {"city":"Baltimore","buildingtype":"MediumOffice","day":12,"total_heating_energy":10.122064844519423},
    {"city":"Baltimore","buildingtype":"MediumOffice","day":13,"total_heating_energy":7.489948326027196},
    {"city":"Baltimore","buildingtype":"MediumOffice","day":14,"total_heating_energy":7.3001021633595835},
    {"city":"Baltimore","buildingtype":"MediumOffice","day":15,"total_heating_energy":20.60886038916508},
    {"city":"Baltimore","buildingtype":"MediumOffice","day":16,"total_heating_energy":11.727111316479958},
    {"city":"Baltimore","buildingtype":"MediumOffice","day":17,"total_heating_energy":3.976389928023263},
    {"city":"Baltimore","buildingtype":"MediumOffice","day":18,"total_heating_energy":67.29188085845833},
    {"city":"Baltimore","buildingtype":"MediumOffice","day":19,"total_heating_energy":60.461179390319586},
    {"city":"Baltimore","buildingtype":"MediumOffice","day":20,"total_heating_energy":30.58074922777708},
    {"city":"Baltimore","buildingtype":"MediumOffice","day":21,"total_heating_energy":12.470709518940955},
    {"city":"Baltimore","buildingtype":"MediumOffice","day":22,"total_heating_energy":12.228432010034773},
    {"city":"Baltimore","buildingtype":"MediumOffice","day":23,"total_heating_energy":21.756204521824472},
    {"city":"Baltimore","buildingtype":"MediumOffice","day":24,"total_heating_energy":0.9691010333918751},
    {"city":"Baltimore","buildingtype":"MediumOffice","day":25,"total_heating_energy":0.9723397279625043},
    {"city":"Baltimore","buildingtype":"MediumOffice","day":26,"total_heating_energy":7.13786436810841},
    {"city":"Baltimore","buildingtype":"MediumOffice","day":27,"total_heating_energy":12.577204858050045},
    {"city":"Baltimore","buildingtype":"MediumOffice","day":28,"total_heating_energy":20.64641500874718},
    {"city":"Baltimore","buildingtype":"MediumOffice","day":29,"total_heating_energy":33.71961232728426},
    {"city":"Baltimore","buildingtype":"MediumOffice","day":30,"total_heating_energy":12.846063050969123},
    {"city":"Baltimore","buildingtype":"MediumOffice","day":31,"total_heating_energy":0.055453791970995835},
    {"city":"Baltimore","buildingtype":"MidriseApartment","day":1,"total_heating_energy":20.828606196899997},
    {"city":"Baltimore","buildingtype":"MidriseApartment","day":2,"total_heating_energy":21.067434734822502},
    {"city":"Baltimore","buildingtype":"MidriseApartment","day":3,"total_heating_energy":16.11220595226125},
    {"city":"Baltimore","buildingtype":"MidriseApartment","day":4,"total_heating_energy":21.353941419975},
    {"city":"Baltimore","buildingtype":"MidriseApartment","day":5,"total_heating_energy":26.849094724670838},
    {"city":"Baltimore","buildingtype":"MidriseApartment","day":6,"total_heating_energy":14.4632639158625},
    {"city":"Baltimore","buildingtype":"MidriseApartment","day":7,"total_heating_energy":5.07398830462047},
    {"city":"Baltimore","buildingtype":"MidriseApartment","day":8,"total_heating_energy":13.903668107970418},
    {"city":"Baltimore","buildingtype":"MidriseApartment","day":9,"total_heating_energy":26.128560628354165},
    {"city":"Baltimore","buildingtype":"MidriseApartment","day":10,"total_heating_energy":31.671661457966664},
    {"city":"Baltimore","buildingtype":"MidriseApartment","day":11,"total_heating_energy":31.2009550647},
    {"city":"Baltimore","buildingtype":"MidriseApartment","day":12,"total_heating_energy":29.82354388980833},
    {"city":"Baltimore","buildingtype":"MidriseApartment","day":13,"total_heating_energy":29.751808257945836},
    {"city":"Baltimore","buildingtype":"MidriseApartment","day":14,"total_heating_energy":27.6556805348125},
    {"city":"Baltimore","buildingtype":"MidriseApartment","day":15,"total_heating_energy":38.82914317906667},
    {"city":"Baltimore","buildingtype":"MidriseApartment","day":16,"total_heating_energy":37.669407771950006},
    {"city":"Baltimore","buildingtype":"MidriseApartment","day":17,"total_heating_energy":67.67610680635417},
    {"city":"Baltimore","buildingtype":"MidriseApartment","day":18,"total_heating_energy":103.06382541702915},
    {"city":"Baltimore","buildingtype":"MidriseApartment","day":19,"total_heating_energy":99.41372384887916},
    {"city":"Baltimore","buildingtype":"MidriseApartment","day":20,"total_heating_energy":73.46838230405417},
    {"city":"Baltimore","buildingtype":"MidriseApartment","day":21,"total_heating_energy":37.273362806433326},
    {"city":"Baltimore","buildingtype":"MidriseApartment","day":22,"total_heating_energy":34.59544645450416},
    {"city":"Baltimore","buildingtype":"MidriseApartment","day":23,"total_heating_energy":39.9090772061125},
    {"city":"Baltimore","buildingtype":"MidriseApartment","day":24,"total_heating_energy":38.04643251227084},
    {"city":"Baltimore","buildingtype":"MidriseApartment","day":25,"total_heating_energy":28.435923611025004},
    {"city":"Baltimore","buildingtype":"MidriseApartment","day":26,"total_heating_energy":21.625546382583334},
    {"city":"Baltimore","buildingtype":"MidriseApartment","day":27,"total_heating_energy":28.53589107758333},
    {"city":"Baltimore","buildingtype":"MidriseApartment","day":28,"total_heating_energy":36.19967202674584},
    {"city":"Baltimore","buildingtype":"MidriseApartment","day":29,"total_heating_energy":59.88146085287917},
    {"city":"Baltimore","buildingtype":"MidriseApartment","day":30,"total_heating_energy":42.29185859335417},
    {"city":"Baltimore","buildingtype":"MidriseApartment","day":31,"total_heating_energy":25.15099347505},
    {"city":"Baltimore","buildingtype":"OutPatient","day":1,"total_heating_energy":106.73846496161666},
    {"city":"Baltimore","buildingtype":"OutPatient","day":2,"total_heating_energy":112.97167081548332},
    {"city":"Baltimore","buildingtype":"OutPatient","day":3,"total_heating_energy":96.34374516090833},
    {"city":"Baltimore","buildingtype":"OutPatient","day":4,"total_heating_energy":114.69067655364584},
    {"city":"Baltimore","buildingtype":"OutPatient","day":5,"total_heating_energy":110.25731894162915},
    {"city":"Baltimore","buildingtype":"OutPatient","day":6,"total_heating_energy":103.34320943726254},
    {"city":"Baltimore","buildingtype":"OutPatient","day":7,"total_heating_energy":100.26167215549584},
    {"city":"Baltimore","buildingtype":"OutPatient","day":8,"total_heating_energy":103.00283943824168},
    {"city":"Baltimore","buildingtype":"OutPatient","day":9,"total_heating_energy":120.25161632857915},
    {"city":"Baltimore","buildingtype":"OutPatient","day":10,"total_heating_energy":95.74876385387917},
    {"city":"Baltimore","buildingtype":"OutPatient","day":11,"total_heating_energy":119.23203051550833},
    {"city":"Baltimore","buildingtype":"OutPatient","day":12,"total_heating_energy":109.28872703064167},
    {"city":"Baltimore","buildingtype":"OutPatient","day":13,"total_heating_energy":109.09154649562085},
    {"city":"Baltimore","buildingtype":"OutPatient","day":14,"total_heating_energy":109.14800831038332},
    {"city":"Baltimore","buildingtype":"OutPatient","day":15,"total_heating_energy":115.36534968461667},
    {"city":"Baltimore","buildingtype":"OutPatient","day":16,"total_heating_energy":122.20190857537501},
    {"city":"Baltimore","buildingtype":"OutPatient","day":17,"total_heating_energy":105.3488287456042},
    {"city":"Baltimore","buildingtype":"OutPatient","day":18,"total_heating_energy":165.13678803458336},
    {"city":"Baltimore","buildingtype":"OutPatient","day":19,"total_heating_energy":154.3334517404667},
    {"city":"Baltimore","buildingtype":"OutPatient","day":20,"total_heating_energy":131.99658559479585},
    {"city":"Baltimore","buildingtype":"OutPatient","day":21,"total_heating_energy":112.8950795570875},
    {"city":"Baltimore","buildingtype":"OutPatient","day":22,"total_heating_energy":111.80743070224584},
    {"city":"Baltimore","buildingtype":"OutPatient","day":23,"total_heating_energy":127.13403974430419},
    {"city":"Baltimore","buildingtype":"OutPatient","day":24,"total_heating_energy":96.39972308529167},
    {"city":"Baltimore","buildingtype":"OutPatient","day":25,"total_heating_energy":99.36062862062084},
    {"city":"Baltimore","buildingtype":"OutPatient","day":26,"total_heating_energy":115.16360130982501},
    {"city":"Baltimore","buildingtype":"OutPatient","day":27,"total_heating_energy":110.83610249980414},
    {"city":"Baltimore","buildingtype":"OutPatient","day":28,"total_heating_energy":114.18797534020416},
    {"city":"Baltimore","buildingtype":"OutPatient","day":29,"total_heating_energy":123.42077358419584},
    {"city":"Baltimore","buildingtype":"OutPatient","day":30,"total_heating_energy":122.0249514943125},
    {"city":"Baltimore","buildingtype":"OutPatient","day":31,"total_heating_energy":97.9283681772208},
    {"city":"Baltimore","buildingtype":"PrimarySchool","day":1,"total_heating_energy":99.63328815404168},
    {"city":"Baltimore","buildingtype":"PrimarySchool","day":2,"total_heating_energy":0},
    {"city":"Baltimore","buildingtype":"PrimarySchool","day":3,"total_heating_energy":0},
    {"city":"Baltimore","buildingtype":"PrimarySchool","day":4,"total_heating_energy":129.79910123312501},
    {"city":"Baltimore","buildingtype":"PrimarySchool","day":5,"total_heating_energy":120.50680276781812},
    {"city":"Baltimore","buildingtype":"PrimarySchool","day":6,"total_heating_energy":58.94321941095416},
    {"city":"Baltimore","buildingtype":"PrimarySchool","day":7,"total_heating_energy":22.681781943245127},
    {"city":"Baltimore","buildingtype":"PrimarySchool","day":8,"total_heating_energy":113.76324599549166},
    {"city":"Baltimore","buildingtype":"PrimarySchool","day":9,"total_heating_energy":0.104892337724375},
    {"city":"Baltimore","buildingtype":"PrimarySchool","day":10,"total_heating_energy":9.230366738052085},
    {"city":"Baltimore","buildingtype":"PrimarySchool","day":11,"total_heating_energy":165.7271240786046},
    {"city":"Baltimore","buildingtype":"PrimarySchool","day":12,"total_heating_energy":140.64142238213552},
    {"city":"Baltimore","buildingtype":"PrimarySchool","day":13,"total_heating_energy":137.9369764338168},
    {"city":"Baltimore","buildingtype":"PrimarySchool","day":14,"total_heating_energy":132.8742028475},
    {"city":"Baltimore","buildingtype":"PrimarySchool","day":15,"total_heating_energy":172.35319501019663},
    {"city":"Baltimore","buildingtype":"PrimarySchool","day":16,"total_heating_energy":0.425300768501875},
    {"city":"Baltimore","buildingtype":"PrimarySchool","day":17,"total_heating_energy":65.49793569996709},
    {"city":"Baltimore","buildingtype":"PrimarySchool","day":18,"total_heating_energy":376.12707242302486},
    {"city":"Baltimore","buildingtype":"PrimarySchool","day":19,"total_heating_energy":338.9826345967408},
    {"city":"Baltimore","buildingtype":"PrimarySchool","day":20,"total_heating_energy":251.3196687835584},
    {"city":"Baltimore","buildingtype":"PrimarySchool","day":21,"total_heating_energy":150.1058261791588},
    {"city":"Baltimore","buildingtype":"PrimarySchool","day":22,"total_heating_energy":146.10836544091669},
    {"city":"Baltimore","buildingtype":"PrimarySchool","day":23,"total_heating_energy":2.2975322350013334},
    {"city":"Baltimore","buildingtype":"PrimarySchool","day":24,"total_heating_energy":22.289154479775416},
    {"city":"Baltimore","buildingtype":"PrimarySchool","day":25,"total_heating_energy":15.044598514450833},
    {"city":"Baltimore","buildingtype":"PrimarySchool","day":26,"total_heating_energy":133.71261709276044},
    {"city":"Baltimore","buildingtype":"PrimarySchool","day":27,"total_heating_energy":143.63830300888642},
    {"city":"Baltimore","buildingtype":"PrimarySchool","day":28,"total_heating_energy":162.638253613},
    {"city":"Baltimore","buildingtype":"PrimarySchool","day":29,"total_heating_energy":231.74621132099128},
    {"city":"Baltimore","buildingtype":"PrimarySchool","day":30,"total_heating_energy":12.97778171577079},
    {"city":"Baltimore","buildingtype":"PrimarySchool","day":31,"total_heating_energy":0.7696131064435416},
    {"city":"Baltimore","buildingtype":"QuickServiceRestaurant","day":1,"total_heating_energy":15.200968084454162},
    {"city":"Baltimore","buildingtype":"QuickServiceRestaurant","day":2,"total_heating_energy":16.107962544299994},
    {"city":"Baltimore","buildingtype":"QuickServiceRestaurant","day":3,"total_heating_energy":11.856350636358336},
    {"city":"Baltimore","buildingtype":"QuickServiceRestaurant","day":4,"total_heating_energy":19.711743320287507},
    {"city":"Baltimore","buildingtype":"QuickServiceRestaurant","day":5,"total_heating_energy":19.28663998799458},
    {"city":"Baltimore","buildingtype":"QuickServiceRestaurant","day":6,"total_heating_energy":9.428715500281958},
    {"city":"Baltimore","buildingtype":"QuickServiceRestaurant","day":7,"total_heating_energy":3.7492619368070095},
    {"city":"Baltimore","buildingtype":"QuickServiceRestaurant","day":8,"total_heating_energy":16.66543926778125},
    {"city":"Baltimore","buildingtype":"QuickServiceRestaurant","day":9,"total_heating_energy":25.293412411858338},
    {"city":"Baltimore","buildingtype":"QuickServiceRestaurant","day":10,"total_heating_energy":27.623947507070834},
    {"city":"Baltimore","buildingtype":"QuickServiceRestaurant","day":11,"total_heating_energy":23.821328589441666},
    {"city":"Baltimore","buildingtype":"QuickServiceRestaurant","day":12,"total_heating_energy":23.414372550825007},
    {"city":"Baltimore","buildingtype":"QuickServiceRestaurant","day":13,"total_heating_energy":22.71468396855416},
    {"city":"Baltimore","buildingtype":"QuickServiceRestaurant","day":14,"total_heating_energy":21.861221938262503},
    {"city":"Baltimore","buildingtype":"QuickServiceRestaurant","day":15,"total_heating_energy":29.441767998587498},
    {"city":"Baltimore","buildingtype":"QuickServiceRestaurant","day":16,"total_heating_energy":26.23237612545833},
    {"city":"Baltimore","buildingtype":"QuickServiceRestaurant","day":17,"total_heating_energy":46.94169369154583},
    {"city":"Baltimore","buildingtype":"QuickServiceRestaurant","day":18,"total_heating_energy":56.34742336612917},
    {"city":"Baltimore","buildingtype":"QuickServiceRestaurant","day":19,"total_heating_energy":54.238529653741665},
    {"city":"Baltimore","buildingtype":"QuickServiceRestaurant","day":20,"total_heating_energy":37.92393735793333},
    {"city":"Baltimore","buildingtype":"QuickServiceRestaurant","day":21,"total_heating_energy":24.5495514119375},
    {"city":"Baltimore","buildingtype":"QuickServiceRestaurant","day":22,"total_heating_energy":24.157321971020835},
    {"city":"Baltimore","buildingtype":"QuickServiceRestaurant","day":23,"total_heating_energy":32.94751418609166},
    {"city":"Baltimore","buildingtype":"QuickServiceRestaurant","day":24,"total_heating_energy":28.330168142191663},
    {"city":"Baltimore","buildingtype":"QuickServiceRestaurant","day":25,"total_heating_energy":21.4137556255375},
    {"city":"Baltimore","buildingtype":"QuickServiceRestaurant","day":26,"total_heating_energy":19.1062723745625},
    {"city":"Baltimore","buildingtype":"QuickServiceRestaurant","day":27,"total_heating_energy":24.373617717679167},
    {"city":"Baltimore","buildingtype":"QuickServiceRestaurant","day":28,"total_heating_energy":29.33975221195},
    {"city":"Baltimore","buildingtype":"QuickServiceRestaurant","day":29,"total_heating_energy":39.70964421530834},
    {"city":"Baltimore","buildingtype":"QuickServiceRestaurant","day":30,"total_heating_energy":27.362183330916668},
    {"city":"Baltimore","buildingtype":"QuickServiceRestaurant","day":31,"total_heating_energy":19.270427492874997},
    {"city":"Baltimore","buildingtype":"SecondarySchool","day":1,"total_heating_energy":518.0038725248777},
    {"city":"Baltimore","buildingtype":"SecondarySchool","day":2,"total_heating_energy":0.05540635345954167},
    {"city":"Baltimore","buildingtype":"SecondarySchool","day":3,"total_heating_energy":0.7943981232234584},
    {"city":"Baltimore","buildingtype":"SecondarySchool","day":4,"total_heating_energy":684.5540140766253},
    {"city":"Baltimore","buildingtype":"SecondarySchool","day":5,"total_heating_energy":612.4306055754289},
    {"city":"Baltimore","buildingtype":"SecondarySchool","day":6,"total_heating_energy":317.90203721271354},
    {"city":"Baltimore","buildingtype":"SecondarySchool","day":7,"total_heating_energy":118.28321334383459},
    {"city":"Baltimore","buildingtype":"SecondarySchool","day":8,"total_heating_energy":561.5490948030832},
    {"city":"Baltimore","buildingtype":"SecondarySchool","day":9,"total_heating_energy":0.44948615706983336},
    {"city":"Baltimore","buildingtype":"SecondarySchool","day":10,"total_heating_energy":22.568351986141664},
    {"city":"Baltimore","buildingtype":"SecondarySchool","day":11,"total_heating_energy":806.9516560125876},
    {"city":"Baltimore","buildingtype":"SecondarySchool","day":12,"total_heating_energy":711.3951503846728},
    {"city":"Baltimore","buildingtype":"SecondarySchool","day":13,"total_heating_energy":694.0824783702056},
    {"city":"Baltimore","buildingtype":"SecondarySchool","day":14,"total_heating_energy":679.5939794928207},
    {"city":"Baltimore","buildingtype":"SecondarySchool","day":15,"total_heating_energy":875.8255796205164},
    {"city":"Baltimore","buildingtype":"SecondarySchool","day":16,"total_heating_energy":10.071413884706667},
    {"city":"Baltimore","buildingtype":"SecondarySchool","day":17,"total_heating_energy":118.77050055072499},
    {"city":"Baltimore","buildingtype":"SecondarySchool","day":18,"total_heating_energy":1690.831071917275},
    {"city":"Baltimore","buildingtype":"SecondarySchool","day":19,"total_heating_energy":1535.5827049467373},
    {"city":"Baltimore","buildingtype":"SecondarySchool","day":20,"total_heating_energy":1099.9673655451372},
    {"city":"Baltimore","buildingtype":"SecondarySchool","day":21,"total_heating_energy":763.7539971248867},
    {"city":"Baltimore","buildingtype":"SecondarySchool","day":22,"total_heating_energy":746.4063585713446},
    {"city":"Baltimore","buildingtype":"SecondarySchool","day":23,"total_heating_energy":8.721328371956417},
    {"city":"Baltimore","buildingtype":"SecondarySchool","day":24,"total_heating_energy":53.10664880855833},
    {"city":"Baltimore","buildingtype":"SecondarySchool","day":25,"total_heating_energy":49.038707738344186},
    {"city":"Baltimore","buildingtype":"SecondarySchool","day":26,"total_heating_energy":678.69850813725},
    {"city":"Baltimore","buildingtype":"SecondarySchool","day":27,"total_heating_energy":745.8976401506551},
    {"city":"Baltimore","buildingtype":"SecondarySchool","day":28,"total_heating_energy":840.0978615972768},
    {"city":"Baltimore","buildingtype":"SecondarySchool","day":29,"total_heating_energy":1115.9973769092455},
    {"city":"Baltimore","buildingtype":"SecondarySchool","day":30,"total_heating_energy":22.95219488497},
    {"city":"Baltimore","buildingtype":"SecondarySchool","day":31,"total_heating_energy":27.74525688667625},
    {"city":"Baltimore","buildingtype":"SmallHotel","day":1,"total_heating_energy":17.735505829466664},
    {"city":"Baltimore","buildingtype":"SmallHotel","day":2,"total_heating_energy":19.903288079262506},
    {"city":"Baltimore","buildingtype":"SmallHotel","day":3,"total_heating_energy":15.83853287765667},
    {"city":"Baltimore","buildingtype":"SmallHotel","day":4,"total_heating_energy":20.778854683870833},
    {"city":"Baltimore","buildingtype":"SmallHotel","day":5,"total_heating_energy":23.161121776543748},
    {"city":"Baltimore","buildingtype":"SmallHotel","day":6,"total_heating_energy":13.75737281618975},
    {"city":"Baltimore","buildingtype":"SmallHotel","day":7,"total_heating_energy":7.056180749902083},
    {"city":"Baltimore","buildingtype":"SmallHotel","day":8,"total_heating_energy":18.41175858246375},
    {"city":"Baltimore","buildingtype":"SmallHotel","day":9,"total_heating_energy":26.8620548151375},
    {"city":"Baltimore","buildingtype":"SmallHotel","day":10,"total_heating_energy":30.226906215912503},
    {"city":"Baltimore","buildingtype":"SmallHotel","day":11,"total_heating_energy":26.68288845655417},
    {"city":"Baltimore","buildingtype":"SmallHotel","day":12,"total_heating_energy":26.621953550576674},
    {"city":"Baltimore","buildingtype":"SmallHotel","day":13,"total_heating_energy":26.093599772583335},
    {"city":"Baltimore","buildingtype":"SmallHotel","day":14,"total_heating_energy":25.05972863568749},
    {"city":"Baltimore","buildingtype":"SmallHotel","day":15,"total_heating_energy":32.207832907775},
    {"city":"Baltimore","buildingtype":"SmallHotel","day":16,"total_heating_energy":29.986401390004165},
    {"city":"Baltimore","buildingtype":"SmallHotel","day":17,"total_heating_energy":48.445252033799996},
    {"city":"Baltimore","buildingtype":"SmallHotel","day":18,"total_heating_energy":61.64134417252498},
    {"city":"Baltimore","buildingtype":"SmallHotel","day":19,"total_heating_energy":60.844751211404166},
    {"city":"Baltimore","buildingtype":"SmallHotel","day":20,"total_heating_energy":46.604695581329175},
    {"city":"Baltimore","buildingtype":"SmallHotel","day":21,"total_heating_energy":28.43878954044583},
    {"city":"Baltimore","buildingtype":"SmallHotel","day":22,"total_heating_energy":27.45678417925416},
    {"city":"Baltimore","buildingtype":"SmallHotel","day":23,"total_heating_energy":34.68278755902916},
    {"city":"Baltimore","buildingtype":"SmallHotel","day":24,"total_heating_energy":32.33722646106667},
    {"city":"Baltimore","buildingtype":"SmallHotel","day":25,"total_heating_energy":25.683035155137492},
    {"city":"Baltimore","buildingtype":"SmallHotel","day":26,"total_heating_energy":21.617294606869578},
    {"city":"Baltimore","buildingtype":"SmallHotel","day":27,"total_heating_energy":26.978915882875},
    {"city":"Baltimore","buildingtype":"SmallHotel","day":28,"total_heating_energy":30.91432568787917},
    {"city":"Baltimore","buildingtype":"SmallHotel","day":29,"total_heating_energy":43.9905659319375},
    {"city":"Baltimore","buildingtype":"SmallHotel","day":30,"total_heating_energy":32.96191415980416},
    {"city":"Baltimore","buildingtype":"SmallHotel","day":31,"total_heating_energy":22.44663899242083},
    {"city":"Baltimore","buildingtype":"SmallOffice","day":1,"total_heating_energy":3.522889484488333},
    {"city":"Baltimore","buildingtype":"SmallOffice","day":2,"total_heating_energy":4.491101126815},
    {"city":"Baltimore","buildingtype":"SmallOffice","day":3,"total_heating_energy":0},
    {"city":"Baltimore","buildingtype":"SmallOffice","day":4,"total_heating_energy":4.451518072983208},
    {"city":"Baltimore","buildingtype":"SmallOffice","day":5,"total_heating_energy":3.620415124873625},
    {"city":"Baltimore","buildingtype":"SmallOffice","day":6,"total_heating_energy":1.5807517125692163},
    {"city":"Baltimore","buildingtype":"SmallOffice","day":7,"total_heating_energy":0.42035216970472916},
    {"city":"Baltimore","buildingtype":"SmallOffice","day":8,"total_heating_energy":1.7157535921066918},
    {"city":"Baltimore","buildingtype":"SmallOffice","day":9,"total_heating_energy":5.2245911601675},
    {"city":"Baltimore","buildingtype":"SmallOffice","day":10,"total_heating_energy":0.013272636424858333},
    {"city":"Baltimore","buildingtype":"SmallOffice","day":11,"total_heating_energy":6.684839441466866},
    {"city":"Baltimore","buildingtype":"SmallOffice","day":12,"total_heating_energy":4.55461208919625},
    {"city":"Baltimore","buildingtype":"SmallOffice","day":13,"total_heating_energy":4.291652291069167},
    {"city":"Baltimore","buildingtype":"SmallOffice","day":14,"total_heating_energy":4.1697707357962495},
    {"city":"Baltimore","buildingtype":"SmallOffice","day":15,"total_heating_energy":6.077970399103751},
    {"city":"Baltimore","buildingtype":"SmallOffice","day":16,"total_heating_energy":7.029087600037499},
    {"city":"Baltimore","buildingtype":"SmallOffice","day":17,"total_heating_energy":1.6762100437434624},
    {"city":"Baltimore","buildingtype":"SmallOffice","day":18,"total_heating_energy":15.623153203329586},
    {"city":"Baltimore","buildingtype":"SmallOffice","day":19,"total_heating_energy":13.258970670376373},
    {"city":"Baltimore","buildingtype":"SmallOffice","day":20,"total_heating_energy":9.720897069885376},
    {"city":"Baltimore","buildingtype":"SmallOffice","day":21,"total_heating_energy":6.472352115093333},
    {"city":"Baltimore","buildingtype":"SmallOffice","day":22,"total_heating_energy":5.771689345627084},
    {"city":"Baltimore","buildingtype":"SmallOffice","day":23,"total_heating_energy":6.8106122402625},
    {"city":"Baltimore","buildingtype":"SmallOffice","day":24,"total_heating_energy":0.15021567420388335},
    {"city":"Baltimore","buildingtype":"SmallOffice","day":25,"total_heating_energy":0.17001576288045417},
    {"city":"Baltimore","buildingtype":"SmallOffice","day":26,"total_heating_energy":4.812925617527376},
    {"city":"Baltimore","buildingtype":"SmallOffice","day":27,"total_heating_energy":4.381998953522084},
    {"city":"Baltimore","buildingtype":"SmallOffice","day":28,"total_heating_energy":5.926193594315833},
    {"city":"Baltimore","buildingtype":"SmallOffice","day":29,"total_heating_energy":8.101837125853168},
    {"city":"Baltimore","buildingtype":"SmallOffice","day":30,"total_heating_energy":7.053483224203847},
    {"city":"Baltimore","buildingtype":"SmallOffice","day":31,"total_heating_energy":0.024738858371},
    {"city":"Baltimore","buildingtype":"Stand-aloneRetail","day":1,"total_heating_energy":45.677846438150006},
    {"city":"Baltimore","buildingtype":"Stand-aloneRetail","day":2,"total_heating_energy":50.33600582915833},
    {"city":"Baltimore","buildingtype":"Stand-aloneRetail","day":3,"total_heating_energy":32.322447364237505},
    {"city":"Baltimore","buildingtype":"Stand-aloneRetail","day":4,"total_heating_energy":53.79844673460834},
    {"city":"Baltimore","buildingtype":"Stand-aloneRetail","day":5,"total_heating_energy":53.3139761732135},
    {"city":"Baltimore","buildingtype":"Stand-aloneRetail","day":6,"total_heating_energy":28.995279323761668},
    {"city":"Baltimore","buildingtype":"Stand-aloneRetail","day":7,"total_heating_energy":12.721822327221618},
    {"city":"Baltimore","buildingtype":"Stand-aloneRetail","day":8,"total_heating_energy":43.184692821041665},
    {"city":"Baltimore","buildingtype":"Stand-aloneRetail","day":9,"total_heating_energy":71.345720075825},
    {"city":"Baltimore","buildingtype":"Stand-aloneRetail","day":10,"total_heating_energy":59.20889914092},
    {"city":"Baltimore","buildingtype":"Stand-aloneRetail","day":11,"total_heating_energy":64.74704563761917},
    {"city":"Baltimore","buildingtype":"Stand-aloneRetail","day":12,"total_heating_energy":60.3360606507815},
    {"city":"Baltimore","buildingtype":"Stand-aloneRetail","day":13,"total_heating_energy":59.93533652358383},
    {"city":"Baltimore","buildingtype":"Stand-aloneRetail","day":14,"total_heating_energy":58.936514736468496},
    {"city":"Baltimore","buildingtype":"Stand-aloneRetail","day":15,"total_heating_energy":76.55288912331228},
    {"city":"Baltimore","buildingtype":"Stand-aloneRetail","day":16,"total_heating_energy":76.15993542256912},
    {"city":"Baltimore","buildingtype":"Stand-aloneRetail","day":17,"total_heating_energy":96.94075031464918},
    {"city":"Baltimore","buildingtype":"Stand-aloneRetail","day":18,"total_heating_energy":141.5996441274667},
    {"city":"Baltimore","buildingtype":"Stand-aloneRetail","day":19,"total_heating_energy":135.63312547248168},
    {"city":"Baltimore","buildingtype":"Stand-aloneRetail","day":20,"total_heating_energy":102.6290561486875},
    {"city":"Baltimore","buildingtype":"Stand-aloneRetail","day":21,"total_heating_energy":68.28754507683625},
    {"city":"Baltimore","buildingtype":"Stand-aloneRetail","day":22,"total_heating_energy":65.90613515665702},
    {"city":"Baltimore","buildingtype":"Stand-aloneRetail","day":23,"total_heating_energy":89.25292711101042},
    {"city":"Baltimore","buildingtype":"Stand-aloneRetail","day":24,"total_heating_energy":61.4179904513554},
    {"city":"Baltimore","buildingtype":"Stand-aloneRetail","day":25,"total_heating_energy":51.31156947765967},
    {"city":"Baltimore","buildingtype":"Stand-aloneRetail","day":26,"total_heating_energy":51.200185533308336},
    {"city":"Baltimore","buildingtype":"Stand-aloneRetail","day":27,"total_heating_energy":62.135812096484585},
    {"city":"Baltimore","buildingtype":"Stand-aloneRetail","day":28,"total_heating_energy":72.34892855094469},
    {"city":"Baltimore","buildingtype":"Stand-aloneRetail","day":29,"total_heating_energy":97.68492518321084},
    {"city":"Baltimore","buildingtype":"Stand-aloneRetail","day":30,"total_heating_energy":78.51838646419543},
    {"city":"Baltimore","buildingtype":"Stand-aloneRetail","day":31,"total_heating_energy":43.88151605911249},
    {"city":"Baltimore","buildingtype":"StripMall","day":1,"total_heating_energy":46.70532784323751},
    {"city":"Baltimore","buildingtype":"StripMall","day":2,"total_heating_energy":51.61881543281249},
    {"city":"Baltimore","buildingtype":"StripMall","day":3,"total_heating_energy":32.847781106008334},
    {"city":"Baltimore","buildingtype":"StripMall","day":4,"total_heating_energy":56.101835443937496},
    {"city":"Baltimore","buildingtype":"StripMall","day":5,"total_heating_energy":55.92831429334191},
    {"city":"Baltimore","buildingtype":"StripMall","day":6,"total_heating_energy":28.68738733097864},
    {"city":"Baltimore","buildingtype":"StripMall","day":7,"total_heating_energy":13.546908950719583},
    {"city":"Baltimore","buildingtype":"StripMall","day":8,"total_heating_energy":46.381844023395836},
    {"city":"Baltimore","buildingtype":"StripMall","day":9,"total_heating_energy":76.71882553985104},
    {"city":"Baltimore","buildingtype":"StripMall","day":10,"total_heating_energy":58.15431492769892},
    {"city":"Baltimore","buildingtype":"StripMall","day":11,"total_heating_energy":68.26535470887139},
    {"city":"Baltimore","buildingtype":"StripMall","day":12,"total_heating_energy":60.30028321552221},
    {"city":"Baltimore","buildingtype":"StripMall","day":13,"total_heating_energy":61.860890938095416},
    {"city":"Baltimore","buildingtype":"StripMall","day":14,"total_heating_energy":61.35003697660017},
    {"city":"Baltimore","buildingtype":"StripMall","day":15,"total_heating_energy":79.75417327415143},
    {"city":"Baltimore","buildingtype":"StripMall","day":16,"total_heating_energy":79.12779240871697},
    {"city":"Baltimore","buildingtype":"StripMall","day":17,"total_heating_energy":98.47479054546666},
    {"city":"Baltimore","buildingtype":"StripMall","day":18,"total_heating_energy":142.5028731223325},
    {"city":"Baltimore","buildingtype":"StripMall","day":19,"total_heating_energy":135.28149990248485},
    {"city":"Baltimore","buildingtype":"StripMall","day":20,"total_heating_energy":102.50000674559165},
    {"city":"Baltimore","buildingtype":"StripMall","day":21,"total_heating_energy":69.35018282284261},
    {"city":"Baltimore","buildingtype":"StripMall","day":22,"total_heating_energy":67.6090572611393},
    {"city":"Baltimore","buildingtype":"StripMall","day":23,"total_heating_energy":89.46367546728038},
    {"city":"Baltimore","buildingtype":"StripMall","day":24,"total_heating_energy":60.06435093770667},
    {"city":"Baltimore","buildingtype":"StripMall","day":25,"total_heating_energy":50.376174038703844},
    {"city":"Baltimore","buildingtype":"StripMall","day":26,"total_heating_energy":52.10355848486228},
    {"city":"Baltimore","buildingtype":"StripMall","day":27,"total_heating_energy":64.58644282573214},
    {"city":"Baltimore","buildingtype":"StripMall","day":28,"total_heating_energy":76.02570727601599},
    {"city":"Baltimore","buildingtype":"StripMall","day":29,"total_heating_energy":99.38937705799509},
    {"city":"Baltimore","buildingtype":"StripMall","day":30,"total_heating_energy":78.89706160253586},
    {"city":"Baltimore","buildingtype":"StripMall","day":31,"total_heating_energy":44.613180174775},
    {"city":"Baltimore","buildingtype":"SuperMarket","day":1,"total_heating_energy":142.30652588470835},
    {"city":"Baltimore","buildingtype":"SuperMarket","day":2,"total_heating_energy":147.72593571633337},
    {"city":"Baltimore","buildingtype":"SuperMarket","day":3,"total_heating_energy":148.2423887619167},
    {"city":"Baltimore","buildingtype":"SuperMarket","day":4,"total_heating_energy":158.68769178883335},
    {"city":"Baltimore","buildingtype":"SuperMarket","day":5,"total_heating_energy":157.93085401031252},
    {"city":"Baltimore","buildingtype":"SuperMarket","day":6,"total_heating_energy":111.21866378113333},
    {"city":"Baltimore","buildingtype":"SuperMarket","day":7,"total_heating_energy":67.65695156678748},
    {"city":"Baltimore","buildingtype":"SuperMarket","day":8,"total_heating_energy":142.17178475895835},
    {"city":"Baltimore","buildingtype":"SuperMarket","day":9,"total_heating_energy":185.68374780999957},
    {"city":"Baltimore","buildingtype":"SuperMarket","day":10,"total_heating_energy":220.27681560936244},
    {"city":"Baltimore","buildingtype":"SuperMarket","day":11,"total_heating_energy":179.14758399565835},
    {"city":"Baltimore","buildingtype":"SuperMarket","day":12,"total_heating_energy":174.20378370637502},
    {"city":"Baltimore","buildingtype":"SuperMarket","day":13,"total_heating_energy":171.486960424},
    {"city":"Baltimore","buildingtype":"SuperMarket","day":14,"total_heating_energy":168.14962335448914},
    {"city":"Baltimore","buildingtype":"SuperMarket","day":15,"total_heating_energy":201.83096242146874},
    {"city":"Baltimore","buildingtype":"SuperMarket","day":16,"total_heating_energy":192.5670263940833},
    {"city":"Baltimore","buildingtype":"SuperMarket","day":17,"total_heating_energy":312.0375704768441},
    {"city":"Baltimore","buildingtype":"SuperMarket","day":18,"total_heating_energy":330.01985778010163},
    {"city":"Baltimore","buildingtype":"SuperMarket","day":19,"total_heating_energy":321.9866320477333},
    {"city":"Baltimore","buildingtype":"SuperMarket","day":20,"total_heating_energy":253.02358471710411},
    {"city":"Baltimore","buildingtype":"SuperMarket","day":21,"total_heating_energy":181.427134525105},
    {"city":"Baltimore","buildingtype":"SuperMarket","day":22,"total_heating_energy":177.38101610200417},
    {"city":"Baltimore","buildingtype":"SuperMarket","day":23,"total_heating_energy":215.5738216828042},
    {"city":"Baltimore","buildingtype":"SuperMarket","day":24,"total_heating_energy":225.14592739482498},
    {"city":"Baltimore","buildingtype":"SuperMarket","day":25,"total_heating_energy":195.08616900642917},
    {"city":"Baltimore","buildingtype":"SuperMarket","day":26,"total_heating_energy":153.4707869871667},
    {"city":"Baltimore","buildingtype":"SuperMarket","day":27,"total_heating_energy":175.3198198954208},
    {"city":"Baltimore","buildingtype":"SuperMarket","day":28,"total_heating_energy":193.99173125756667},
    {"city":"Baltimore","buildingtype":"SuperMarket","day":29,"total_heating_energy":244.5150144928041},
    {"city":"Baltimore","buildingtype":"SuperMarket","day":30,"total_heating_energy":199.77568219216255},
    {"city":"Baltimore","buildingtype":"SuperMarket","day":31,"total_heating_energy":180.06722602900004},
    {"city":"Baltimore","buildingtype":"Warehouse","day":1,"total_heating_energy":39.377534200312496},
    {"city":"Baltimore","buildingtype":"Warehouse","day":2,"total_heating_energy":51.76838066959167},
    {"city":"Baltimore","buildingtype":"Warehouse","day":3,"total_heating_energy":42.37859643461251},
    {"city":"Baltimore","buildingtype":"Warehouse","day":4,"total_heating_energy":50.976257949612496},
    {"city":"Baltimore","buildingtype":"Warehouse","day":5,"total_heating_energy":57.15663882481251},
    {"city":"Baltimore","buildingtype":"Warehouse","day":6,"total_heating_energy":36.781283586253736},
    {"city":"Baltimore","buildingtype":"Warehouse","day":7,"total_heating_energy":21.94425662795854},
    {"city":"Baltimore","buildingtype":"Warehouse","day":8,"total_heating_energy":45.69585471204667},
    {"city":"Baltimore","buildingtype":"Warehouse","day":9,"total_heating_energy":68.78498197822084},
    {"city":"Baltimore","buildingtype":"Warehouse","day":10,"total_heating_energy":72.076289931625},
    {"city":"Baltimore","buildingtype":"Warehouse","day":11,"total_heating_energy":63.37100214834165},
    {"city":"Baltimore","buildingtype":"Warehouse","day":12,"total_heating_energy":62.99087785978333},
    {"city":"Baltimore","buildingtype":"Warehouse","day":13,"total_heating_energy":62.58615352165416},
    {"city":"Baltimore","buildingtype":"Warehouse","day":14,"total_heating_energy":57.79825579031668},
    {"city":"Baltimore","buildingtype":"Warehouse","day":15,"total_heating_energy":74.23396754595},
    {"city":"Baltimore","buildingtype":"Warehouse","day":16,"total_heating_energy":72.28582514998334},
    {"city":"Baltimore","buildingtype":"Warehouse","day":17,"total_heating_energy":130.47855670499166},
    {"city":"Baltimore","buildingtype":"Warehouse","day":18,"total_heating_energy":192.28247886083332},
    {"city":"Baltimore","buildingtype":"Warehouse","day":19,"total_heating_energy":185.6331934702},
    {"city":"Baltimore","buildingtype":"Warehouse","day":20,"total_heating_energy":136.55440411042918},
    {"city":"Baltimore","buildingtype":"Warehouse","day":21,"total_heating_energy":63.88113964432085},
    {"city":"Baltimore","buildingtype":"Warehouse","day":22,"total_heating_energy":60.241303148075},
    {"city":"Baltimore","buildingtype":"Warehouse","day":23,"total_heating_energy":84.60750981355416},
    {"city":"Baltimore","buildingtype":"Warehouse","day":24,"total_heating_energy":83.8450355172},
    {"city":"Baltimore","buildingtype":"Warehouse","day":25,"total_heating_energy":64.38215800459166},
    {"city":"Baltimore","buildingtype":"Warehouse","day":26,"total_heating_energy":49.961759757820836},
    {"city":"Baltimore","buildingtype":"Warehouse","day":27,"total_heating_energy":61.09068905523748},
    {"city":"Baltimore","buildingtype":"Warehouse","day":28,"total_heating_energy":67.78455086228749},
    {"city":"Baltimore","buildingtype":"Warehouse","day":29,"total_heating_energy":121.00242719303748},
    {"city":"Baltimore","buildingtype":"Warehouse","day":30,"total_heating_energy":96.56506135230417},
    {"city":"Baltimore","buildingtype":"Warehouse","day":31,"total_heating_energy":53.37475041223749}]